{
	"info": {
		"_postman_id": "590f09b2-7002-4d60-9422-cf58eddd98b1",
		"name": "Assignment 3 Java Web API with Spring and postgresql",
		"schema": "https://schema.getpostman.com/json/collection/v2.1.0/collection.json"
	},
	"item": [
		{
			"name": "Character",
			"item": [
				{
					"name": "GetAllCharacters",
					"request": {
						"method": "GET",
						"header": [],
						"url": {
							"raw": "{{baseAPIUrlv1}}/character",
							"host": [
								"{{baseAPIUrlv1}}"
							],
							"path": [
								"character"
							]
						}
					},
					"response": []
				},
				{
					"name": "getCharacterById",
					"request": {
						"method": "GET",
						"header": [],
						"url": {
							"raw": "{{baseAPIUrlv1}}/character/2",
							"host": [
								"{{baseAPIUrlv1}}"
							],
							"path": [
								"character",
								"2"
							]
						}
					},
					"response": []
				},
				{
					"name": "addCharacter",
					"request": {
						"method": "POST",
						"header": [],
						"body": {
							"mode": "raw",
							"raw": "{\r\n    \"name\": \"Daniel\",\r\n    \"alias\": \"Dan\",\r\n    \"gender\": \"Male\",\r\n    \"picture\": \"https://media.istockphoto.com/vectors/unknown-person-silhouette-whith-tie-vector-id521573881?k=20&m=521573881&s=612x612&w=0&h=aN-SJp9juUxAF4kpfJinHHLTYveU-qhzL3w7pcw-5KU=\"\r\n}",
							"options": {
								"raw": {
									"language": "json"
								}
							}
						},
						"url": {
							"raw": "{{baseAPIUrlv1}}/character",
							"host": [
								"{{baseAPIUrlv1}}"
							],
							"path": [
								"character"
							]
						}
					},
					"response": []
				},
				{
					"name": "updateCharacter",
					"request": {
						"method": "PUT",
						"header": [],
						"body": {
							"mode": "raw",
							"raw": "{\r\n    \"id\": 4,\r\n    \"name\": \"Daniel changed23\",\r\n    \"alias\": \"Dan\",\r\n    \"gender\": \"Male\",\r\n    \"picture\": \"https://media.istockphoto.com/vectors/unknown-person-silhouette-whith-tie-vector-id521573881?k=20&m=521573881&s=612x612&w=0&h=aN-SJp9juUxAF4kpfJinHHLTYveU-qhzL3w7pcw-5KU=\"\r\n}",
							"options": {
								"raw": {
									"language": "json"
								}
							}
						},
						"url": {
							"raw": "{{baseAPIUrlv1}}/character/4",
							"host": [
								"{{baseAPIUrlv1}}"
							],
							"path": [
								"character",
								"4"
							],
							"query": [
								{
									"key": "",
									"value": null,
									"disabled": true
								}
							]
						}
					},
					"response": []
				},
				{
					"name": "deleteCharacter",
					"request": {
						"method": "DELETE",
						"header": [],
						"url": {
							"raw": "{{baseAPIUrlv1}}/character/3",
							"host": [
								"{{baseAPIUrlv1}}"
							],
							"path": [
								"character",
								"3"
							]
						}
					},
					"response": []
				}
			]
		},
		{
			"name": "Franchies",
			"item": [
				{
					"name": "getAllFranchises",
					"request": {
						"method": "GET",
						"header": [],
						"url": {
							"raw": "{{baseAPIUrlv1}}/franchise",
							"host": [
								"{{baseAPIUrlv1}}"
							],
							"path": [
								"franchise"
							]
						}
					},
					"response": []
				},
				{
					"name": "getFranchiseById",
					"request": {
						"method": "GET",
						"header": [],
						"url": {
							"raw": "{{baseAPIUrlv1}}/franchise/1",
							"host": [
								"{{baseAPIUrlv1}}"
							],
							"path": [
								"franchise",
								"1"
							]
						}
					},
					"response": []
				},
				{
					"name": "addFranchise",
					"request": {
						"method": "POST",
						"header": [],
						"body": {
							"mode": "raw",
							"raw": "{\r\n    \"name\": \"franchise3\",\r\n    \"description\": \"some franchise\"\r\n}",
							"options": {
								"raw": {
									"language": "json"
								}
							}
						},
						"url": {
							"raw": "{{baseAPIUrlv1}}/franchise",
							"host": [
								"{{baseAPIUrlv1}}"
							],
							"path": [
								"franchise"
							]
						}
					},
					"response": []
				},
				{
					"name": "updateFranchise",
					"request": {
						"method": "PUT",
						"header": [],
						"body": {
							"mode": "raw",
							"raw": "{\r\n    \"id\": 1,\r\n    \"name\": \"changed franchise\",\r\n    \"description\": \"Has been changed\"\r\n}",
							"options": {
								"raw": {
									"language": "json"
								}
							}
						},
						"url": {
							"raw": "{{baseAPIUrlv1}}/franchise/1",
							"host": [
								"{{baseAPIUrlv1}}"
							],
							"path": [
								"franchise",
								"1"
							]
						}
					},
					"response": []
				},
				{
					"name": "deleteFranchise",
					"request": {
						"method": "DELETE",
						"header": [],
						"url": {
							"raw": "{{baseAPIUrlv1}}/franchise/1",
							"host": [
								"{{baseAPIUrlv1}}"
							],
							"path": [
								"franchise",
								"1"
							]
						}
					},
					"response": []
				},
				{
					"name": "updateMoviesInFranchise",
					"request": {
						"method": "PUT",
						"header": [],
						"body": {
							"mode": "raw",
							"raw": "[\r\n    1,\r\n    2,\r\n    3\r\n]",
							"options": {
								"raw": {
									"language": "json"
								}
							}
						},
						"url": {
							"raw": "{{baseAPIUrlv1}}/franchise/1/movies",
							"host": [
								"{{baseAPIUrlv1}}"
							],
							"path": [
								"franchise",
								"1",
								"movies"
							]
						}
					},
					"response": []
				},
				{
					"name": "getAllMoviesInFranchise",
					"request": {
						"method": "GET",
						"header": [],
						"url": {
							"raw": "{{baseAPIUrlv1}}/franchise/1/all/movies",
							"host": [
								"{{baseAPIUrlv1}}"
							],
							"path": [
								"franchise",
								"1",
								"all",
								"movies"
							]
						}
					},
					"response": []
				},
				{
					"name": "getAllCharactersInFranchise",
					"request": {
						"method": "GET",
						"header": [],
						"url": {
							"raw": "{{baseAPIUrlv1}}/franchise/1/all/characters",
							"host": [
								"{{baseAPIUrlv1}}"
							],
							"path": [
								"franchise",
								"1",
								"all",
								"characters"
							]
						}
					},
					"response": []
				}
			]
		},
		{
			"name": "Movies",
			"item": [
				{
					"name": "getAllMovies",
					"request": {
						"method": "GET",
						"header": [],
						"url": {
							"raw": "{{baseAPIUrlv1}}/movie",
							"host": [
								"{{baseAPIUrlv1}}"
							],
							"path": [
								"movie"
							]
						}
					},
					"response": []
				},
				{
					"name": "getMovieById",
					"request": {
						"method": "GET",
						"header": [],
						"url": {
							"raw": "{{baseAPIUrlv1}}/movie/2",
							"host": [
								"{{baseAPIUrlv1}}"
							],
							"path": [
								"movie",
								"2"
							]
						}
					},
					"response": []
				},
				{
					"name": "addMovie",
					"request": {
						"method": "POST",
						"header": [],
						"body": {
							"mode": "raw",
							"raw": "{\r\n    \"title\": \"some title\",\r\n    \"genre\": \"Drama\",\r\n    \"releaseYear\": 1990,\r\n    \"director\": \"some director\"\r\n}",
							"options": {
								"raw": {
									"language": "json"
								}
							}
						},
						"url": {
							"raw": "{{baseAPIUrlv1}}/movie",
							"host": [
								"{{baseAPIUrlv1}}"
							],
							"path": [
								"movie"
							]
						}
					},
					"response": []
				},
				{
					"name": "updateMovie",
					"request": {
						"method": "PUT",
						"header": [],
						"body": {
							"mode": "raw",
							"raw": "{\r\n    \"id\": 1,\r\n    \"title\": \"changed\",\r\n    \"genre\": \"Drama\",\r\n    \"releaseYear\": 1998,\r\n    \"director\": \"changed dir\"\r\n}",
							"options": {
								"raw": {
									"language": "json"
								}
							}
						},
						"url": {
							"raw": "{{baseAPIUrlv1}}/movie/1",
							"host": [
								"{{baseAPIUrlv1}}"
							],
							"path": [
								"movie",
								"1"
							]
						}
					},
					"response": []
				},
				{
					"name": "deleteMovie",
					"request": {
						"method": "DELETE",
						"header": [],
						"body": {
							"mode": "raw",
							"raw": "{\r\n    \r\n}",
							"options": {
								"raw": {
									"language": "json"
								}
							}
						},
						"url": {
							"raw": "{{baseAPIUrlv1}}/movie/1",
							"host": [
								"{{baseAPIUrlv1}}"
							],
							"path": [
								"movie",
								"1"
							]
						}
					},
					"response": []
				},
				{
					"name": "updateCharactersInMovie",
					"request": {
						"method": "PUT",
						"header": [],
						"body": {
							"mode": "raw",
							"raw": "[1, 2]",
							"options": {
								"raw": {
									"language": "json"
								}
							}
						},
						"url": {
							"raw": "{{baseAPIUrlv1}}/movie/1/characters",
							"host": [
								"{{baseAPIUrlv1}}"
							],
							"path": [
								"movie",
								"1",
								"characters"
							]
						}
					},
					"response": []
				},
				{
					"name": "getAllCharactersInMovie",
					"request": {
						"method": "GET",
						"header": [],
						"url": {
							"raw": "{{baseAPIUrlv1}}/movie/2/all/characters",
							"host": [
								"{{baseAPIUrlv1}}"
							],
							"path": [
								"movie",
								"2",
								"all",
								"characters"
							]
						}
					},
					"response": []
				}
			]
		}
	],
	"event": [
		{
			"listen": "prerequest",
			"script": {
				"type": "text/javascript",
				"exec": [
					""
				]
			}
		},
		{
			"listen": "test",
			"script": {
				"type": "text/javascript",
				"exec": [
					""
				]
			}
		}
	],
	"variable": [
		{
			"key": "baseAPIUrlv1",
			"value": "http://localhost:8080/api/v1",
			"type": "string"
		},
		{
			"key": "herokuBaseUrl",
			"value": "https://web-api-with-spring-and-postgr.herokuapp.com/api/v1",
			"type": "string"
		}
	]
}